<svg xmlns="http://www.w3.org/2000/svg" xmlns:xlink="http://www.w3.org/1999/xlink" width="15" height="15" viewBox="0 0 15 15">
  <g id="Mask_Group_9" data-name="Mask Group 9" transform="translate(-856 -186)" clip-path="url(#clip-path)">
    <g id="recycling-bin" transform="translate(856 186)">
      <g id="_x34__19_">
        <g id="Group_25" data-name="Group 25">
          <path id="Path_11" data-name="Path 11" d="M9.844,13.125a.469.469,0,0,0,.469-.469V7.031a.469.469,0,1,0-.937,0v5.625A.469.469,0,0,0,9.844,13.125Zm2.812-11.25H9.844V.938A.937.937,0,0,0,8.906,0H6.094a.937.937,0,0,0-.938.938v.938H2.344a.937.937,0,0,0-.938.938V3.75a.938.938,0,0,0,.938.938v8.438A1.875,1.875,0,0,0,4.219,15h6.563a1.875,1.875,0,0,0,1.875-1.875V4.688a.938.938,0,0,0,.938-.938V2.812A.937.937,0,0,0,12.656,1.875ZM6.094,1.406A.469.469,0,0,1,6.562.937H8.438a.469.469,0,0,1,.469.469v.469H6.094Zm5.625,11.719a.938.938,0,0,1-.937.937H4.219a.938.938,0,0,1-.938-.937V4.688h8.438Zm.469-9.375H2.812a.469.469,0,0,1,0-.938h9.375a.469.469,0,0,1,0,.938ZM5.156,13.125a.469.469,0,0,0,.469-.469V7.031a.469.469,0,1,0-.938,0v5.625A.469.469,0,0,0,5.156,13.125Zm2.344,0a.469.469,0,0,0,.469-.469V7.031a.469.469,0,1,0-.938,0v5.625A.469.469,0,0,0,7.5,13.125Z" fill="#607d8b"/>
        </g>
      </g>
    </g>
  </g>
</svg>
